<svg width="7" height="12" viewBox="0 0 7 12" fill="none" xmlns="http://www.w3.org/2000/svg">
<path d="M5.38416e-07 10L4 6L-6.55671e-08 2L1.5 0.5L7 6L1.5 11.5L5.38416e-07 10Z" fill="#2B2D42"/>
</svg>
