<svg width="15" height="13" viewBox="0 0 15 13" fill="none" xmlns="http://www.w3.org/2000/svg">
<path fill-rule="evenodd" clip-rule="evenodd" d="M14.9999 0V9H4.41412L6.41412 11L4.99991 12.4142L0.585693 8L4.99991 3.58579L6.41412 5L4.41412 7H12.9999V0H14.9999Z" fill="#8D99AE"/>
</svg>
