<svg width="40" height="80" viewBox="0 0 40 80" fill="none" xmlns="http://www.w3.org/2000/svg">
<path opacity="0.4" d="M0 80C22.0914 80 40 62.0914 40 40C40 17.9086 22.0914 0 0 0V80Z" fill="#8D99AE"/>
</svg>
