<svg width="40" height="80" viewBox="0 0 40 80" fill="none" xmlns="http://www.w3.org/2000/svg">
<path opacity="0.2" d="M40 80C17.9086 80 0 62.0914 0 40C0 17.9086 17.9086 0 40 0V80Z" fill="#8D99AE"/>
<path fill-rule="evenodd" clip-rule="evenodd" d="M25 39L21 35L22.5 33.5L29 40L22.5 46.5L21 45L25 41L11 41L11 39L25 39Z" fill="#2B2D42"/>
</svg>
